DS201 - Final Project
…
data <- data %>%
  mutate(
    winner = case_when(
      `Team1 Rounds` > `Team2 Rounds` ~ `Team1 Name`,
      `Team1 Rounds` < `Team2 Rounds` ~ `Team2 Name`,
      `Team1 Rounds` == `Team2 Rounds` ~ 'Draw')
  )

Great, now we can ask something like “which team has won the most
games?”.

  data %>%
    count(winner, sort = TRUE)

## # A tibble: 8,872 × 2
##    winner                  n
##    <chr>               <int>
##  1 Draw                 1314
##  2 Zero MarksMen Black   420
##  3 YFP Gaming            350
##  4 BASILISK              346
##  5 TSM                   343
##  6 Sentinels             342
##  7 Paper Rex             341
##  8 Soniqs                340
##  9 Velocity Gaming       340
## 10 Gen.G                 337
## # ℹ 8,862 more rows
…
Great, let’s take a look at the stats now that they’ve been sorted a
bit better.

team_stats %>%
  arrange(desc(total_wins))

## # A tibble: 13,787 × 14
##    team     total_wins total_games winrate avg_ACS total_eco_wins total_buy_wins
##    <chr>         <int>       <int>   <dbl>   <dbl>          <dbl>          <dbl>
##  1 Zero Ma…        420         678   0.619    210.            243           5146
##  2 YFP Gam…        350         587   0.596    208.            184           4020
##  3 BASILISK        346         601   0.576    206.            224           4219
##  4 TSM             343         511   0.671    204.            102           2248
##  5 Sentine…        342         522   0.655    206.            118           2238
##  6 Paper R…        341         512   0.666    210.            141           3254
##  7 Soniqs          340         506   0.672    213.            191           3698
##  8 Velocit…        340         498   0.683    210.            181           3234
##  9 Gen.G           337         563   0.599    199.            119           2130
## 10 Renegad…        331         510   0.649    211.            116           2845
## # ℹ 13,777 more rows
## # ℹ 7 more variables: total_ecos <dbl>, total_buys <dbl>, eco_winrate <dbl>,
## #   buy_winrate <dbl>, avg_kast <dbl>, total_kills <dbl>, total_deaths <dbl>

No surprise its the same stats, but this time we have win rates as
well as games played. Lets check to see which of these experienced teams
has performed most consistently well over their career. For this, we’ll
filter out teams with less than 300 professional matches (about half the
most winning team).

  team_stats %>%
    filter(total_games > 300) %>%
    arrange(desc(winrate))

## # A tibble: 77 × 14
##    team     total_wins total_games winrate avg_ACS total_eco_wins total_buy_wins
##    <chr>         <int>       <int>   <dbl>   <dbl>          <dbl>          <dbl>
##  1 Team Fa…        324         428   0.757    214.            205           3455
##  2 Ghost G…        230         328   0.701    214.             82           2196
##  3 Version1        275         395   0.696    215.            116           2730
##  4 Acend           249         358   0.696    208.            132           2496
##  5 Velocit…        340         498   0.683    210.            181           3234
##  6 FNATIC          255         377   0.676    209.             81           2440
##  7 Soniqs          340         506   0.672    213.            191           3698
##  8 TSM             343         511   0.671    204.            102           2248
##  9 SoaR            218         325   0.671    212.            129           2441
## 10 Blinn           247         370   0.668    208.            161           2814
## # ℹ 67 more rows
## # ℹ 7 more variables: total_ecos <dbl>, total_buys <dbl>, eco_winrate <dbl>,
## #   buy_winrate <dbl>, avg_kast <dbl>, total_kills <dbl>, total_deaths <dbl>
…
